"LightmappedGeneric"
{
	// Original shader: BaseTimesLightmap
	"$basetexture" "Wood/woodfloor002a"
	"$surfaceprop" "wood"
	"%keywords" "c17downtown,wasteland"
	"$envmap" "env_cubemap"
	"$envmapcontrast" 1
	"$envmapsaturation" 1
	"$envmaptint" "[ .12 .12 .12 ]"
}
