"LightmappedGeneric"
{
    	"$basetexture" "Signs/Magasin_001"
    	"%keywords" "Altered Transmission"
	// Make it somewhat reflective, I saw they did it in Real-Life, so let's copy that.
	"$envmap" "env_cubemap" 
    	"$envmaptint" "[.02 .02 .02]"
	// In the beginning of the 21st century, who would have known signs were made of metal?
	"$surfaceprop" "metal"
}