LightmappedGeneric
{
                "$baseTexture" "concrete/concretewall001g_wet"
                "$surfaceprop" "concrete"
                "%keywords" dod
                "$bumpmap" "concrete/ssbumps/sewer_concretewall_ssbump"
                "$ssbump" 1

                "$envmap" "env_cubemap"
                "$normalmapalphaenvmapmask" 1
                "$envmaptint" "[ .5 .4 .4 ]"
}
