"LightmappedGeneric"
{
	// Original shader: BaseTimesLightmap
	"$basetexture" "concrete\concretefloor027a"
	"$surfaceprop" "concrete"
	"%keywords" "c17downtown"
	"$bumpmap" "concrete\concretefloor038b_normal"
	"$normalmapalphaenvmapmask" 1
	"$envmap" "env_cubemap"
	"$envmapsaturation" 1
	"$envmapcontrast" 1
	"$envmaptint" "[ .6 .6 .62 ]"
}
