"LightmappedGeneric"
{
	// Original shader: BaseTimesLightmap
	"$basetexture" "Concrete/concretefloor006_wet"
                "$bumpmap" "concrete/ssbumps/drainage_concretefloor_01_height-ssbump"
                "$ssbump" 1

	"$surfaceprop" "concrete"
	"%keywords" "c17downtown"

                "$envmap" env_cubemap
                "$normalmapalphaenvmapmask" 1
                "$envmaptint" "[ .1 .1 .1 ]"
}
