"LightMappedGeneric"
{
	"$basetexture"	"concrete/concretewall_01green"
                "$bumpmap" "concrete/ssbumps/garage_concrete_ssbump"

                "$surfaceprop" "concrete"
                "$ssbump" "1"

 "$detail" "detail\noise_detail_01"
	"$detailscale" 4.2
	"$detailblendfactor" .5
	"$detailblendmode" 0

	"%keywords" "gear"
 "$envmap" "env_cubemap"
 "$normalmapalphaenvmapmask" 1
 "$envmaptint" "[ .1 .2 .1 ]"
}