"LightmappedGeneric"
{
	"$basetexture" "Concrete/concretefloor013g"
	"$surfaceprop" "concrete"
	
        "$detail" "detail\noise_detail_01"
	"$detailscale" "7.345"
	"$detailblendfactor" .6
	"$detailblendmode" 0

	"$bumpmap" "concrete/ssbumps/concrete_ssbump"
                "$ssbump" 1
}
