// envmaptint_fix
"VertexLitGeneric"
{
	"$basetexture" "Models/props_combine/ar20_charger001"
	"$surfaceprop" "metal"
    "%keywords" "Altered Transmission"
	"$bumpmap" "Metal/metalwall077a_normal"
	"$envmaptint" "[ .56 .56 .75 ]"
	"$envmap" "env_cubemap"
	"$normalmapalphaenvmapmask" 1
	"$envmapcontrast" 1
	"$envmapsaturation" 1
}
