"LightmappedGeneric"
{
	// Original shader: WorldAdditiveTransEnvMapWithMaskedTexture
	"$basetexture" "Glass/TV1_Office_Glass_001"
	"$envmap" "env_cubemap"
	"$surfaceprop" "glass"
	"$envmapsaturation" 0.4
	"$envmapcontrast" 1.5
	"$envmaptint" "[ .2 .2 .2 ]"
}
