"VertexLitGeneric"
{
	"$basetexture" "Models/props_c17/streetsigns_composite01"
	"$surfaceprop" "metal"
	"$envmap" "env_cubemap"
	"$basealphaenvmapmask" 1
	"$basetexturetransform" "center .5 .5 scale 1 1 rotate 0 translate 0.5 0.25"
}
