"WorldVertexTransition"
{
	"$basetexture" "concrete/concretefloor019a"
	"$basetexture2" "concrete/concretefloor007a"

	"%tooltexture" "nature/blenddebris002a_tooltexture"
	"$surfaceprop" "dirt"
	"$surfaceprop2" "concrete"
	"$basetexturetransform" "center .25 .25 scale 1 1 rotate 0 translate 0 0"
        "$basetexturetransform2" "center .5 .5 scale 2 2 rotate 0 translate 0 0"
    	"%keywords" "Altered Transmission"
	"$bumpmap1" "concrete/concretefloor019a_normal"
	"$bumpmap2" "concrete/concretefloor007a_normal"

}
