"LightmappedGeneric"
{
                "$bumpmap" "plaster/ssbumps/plaster_ssbump"
	"$basetexture" "Plaster/plasterwall021g"
	"$surfaceprop" "plaster"
"$ssbump" 1
        "$detail" "detail\plaster_detail_01"
	"$detailscale" "11.345"
	"$detailblendfactor" .6
	"$detailblendmode" 0

}
