"LightmappedGeneric"
{
	"$basetexture" "Plaster/plasterwall048gdv"
	"$surfaceprop"  "plaster"
                "$bumpmap" "Plaster/plasterwall048gdv_normal"

	"$detail" "detail\plaster_detail_01"
	"$detailscale" "6.783"
	"$detailblendfactor" .8
	"$detailblendmode" "0"

	"%keywords" "c17skyscraper"
}