lightmappedgeneric
{
$baseTexture "plaster/rooffloor_tar01"
$surfaceprop plaster
$bumpmap "plaster/roofbump-ssbump"
$ssbump 1
$envmap env_cubemap
$normalmapalphaenvmapmask 1
$envmaptint "[ .1 .1 .1 ]"
}
