LightmappedGeneric
{
$baseTexture "plaster/rooffloor_tar02"
$Bumpmap "plaster\rooffloor_tar02_height-ssbump"
$ssbump 1
$envmap env_cubemap
$normalmapalphaenvmapmask 1
$Surfaceprop paper
$detail "detail\dt_roof01"
$detailscale 5
$detailblendfactor .4
$detailblendmode 7
}
