"credits.txt"
{

"IntroCreditsNames"
{
	"Sortie "	"CreditsText"
}

"CreditsParams"
{
	"fadeintime"	"2.5"
	"fadeouttime"	"1"
	"fadeholdtime"	"4.0"
	"nextfadetime"	"1.0"
	"pausebetweenwaves" "1.0"
	"logotime" "6.0"
	"posx"	"360" //"96"
	"posy"	"360"

	"color" "255 255 255 128"

	// Outro Parameters
	"scrolltime" "140"
	"separation"  "10"
}


"OutroCreditsNames"
{
	"You just played"						"CreditsOutroText"
	"ALTERED TRANSMISSION"						"CreditsOutroHeading"
	"DEMO 10"							"CreditsOutroSubheading"
	" "								"CreditsOutroText"
	"Created by"							"CreditsOutroSubheading"
	"Jonas 'Sortie' Termansen"    					"CreditsOutroPerson"
	" "    								"CreditsOutroText"
	"Miscellaneous art contributions by"   				"CreditsOutroSubheading"
	"MAC"    							"CreditsOutroText"
	"MrTwoVideoCards"   						"CreditsOutroText"
	"Quarter Life"   						"CreditsOutroText"
	"No.00 Dylan"   						"CreditsOutroText"
	" "    								"CreditsOutroText"
	"Truly Thanks to"   						"CreditsOutroSubheading"
	"Everybody who provided feedback, testing and contributions!"	"CreditsOutroText"
	" "    								"CreditsOutroText"
	"This is a development snapshot of Altered Transmission."    	"CreditsOutroText"
	"The mod is not finished even though it is very playable."    	"CreditsOutroText"
	" "    								"CreditsOutroText"
	"I need your feedback in order to improve this mod."		"CreditsOutroText"
	"Please send me an email or add me as a Steam friend"   	"CreditsOutroText"
	"and tell me what you think is good and what isn't."    	"CreditsOutroText"
	"This helps me improve my mod before the 11th release!"    	"CreditsOutroText"
	" "    								"CreditsOutroText"
	"Thanks for playing!"    					"CreditsOutroText"
	" "								"CreditsOutroText"
	"http://www.maxsi.org/at/"					"CreditsOutroSubheading"
	"sortie@maxsi.org"						"CreditsOutroSubheading"
	"Steam: sortie"							"CreditsOutroSubheading"
	" "    								"CreditsOutroSubheading"
	" "    								"CreditsOutroText"
	" "    								"CreditsOutroText"
	" "    								"CreditsOutroText"
	" "    								"CreditsOutroText"
	" "    								"CreditsOutroText"
	" "    								"CreditsOutroText"
	" "    								"CreditsOutroText"
	" "    								"CreditsOutroText"
	" "    								"CreditsOutroText"
	" "    								"CreditsOutroText"
	" "    								"CreditsOutroText"
	" "    								"CreditsOutroText"
	" "    								"CreditsOutroText"
	" "    								"CreditsOutroText"
	" "    								"CreditsOutroText"
	" "    								"CreditsOutroText"
	" "    								"CreditsOutroText"
	" "    								"CreditsOutroText"
	" "    								"CreditsOutroText"
	" "    								"CreditsOutroText"
	" "    								"CreditsOutroText"
	" "    								"CreditsOutroText"
	"ALTERED TRANSMISSION"	"CreditsOutroHeading"
}

}