LightmappedGeneric
{
	"$basetexture"	"Prewaves\Building_Template\TrainStation_Template_01c"
	"$surfaceprop" "plaster"
	"%keywords" "AT10"


	"$detail" "detail\noise_detail_01"
	"$detailscale" "7.345"
	"$detailblendfactor" .8
	"$detailblendmode" 0
}
