"Refract"
{
 	"Refract_DX60"
	{
		"$fallbackmaterial" "effects/blurr"
	}
                "$nocull" "1"
	"$nowritez" 1
	"$bluramount" 8
 	"$refractamount" ".02"
                "$bumpmap" "effects/bump_testsheet_normal"
                "$normalmap" "effects/bump_testsheet_normal"
}


